…
-   **`select` (seleccionar)**

    La función `select` es útil en caso de querer seleccionar una o
    varias columnas de un `data.frame` o tabla de datos. Por ejemplo, se
    pueden seleccionar las variables edad y sexo de *dat* mediante el
    siguiente comando:

    
    ``` r
    dat %>% select(edad, sexo) #empleando el nombre de la columna
    # A tibble: 50,000 × 2
        edad sexo     
       <dbl> <chr>    
     1    23 masculino
     2    15 femenino 
     3    11 masculino
     4    39 femenino 
     5    25 masculino
     6     8 femenino 
     7    53 masculino
     8    29 masculino
     9    41 femenino 
    10    61 masculino
    # ℹ 49,990 more rows
    ```

-   **`filter` (filtrar)**

Esta función se puede usar para filtrar una tabla de datos a partir de
una condición lógica del valor de sus filas. Por ejemplo, para filtrar
los registros menores de 28 años, usamos:


``` r
dat %>% filter(edad < 28)
# A tibble: 13,235 × 19
   fecha_reporte_web   id_de_caso fecha_de_notificacion  edad sexo     
   <dttm>                   <dbl> <dttm>                <dbl> <chr>    
 1 2021-07-14 00:00:00    4565159 2021-07-07 00:00:00      23 masculino
 2 2021-04-24 00:00:00    2747373 2021-04-21 00:00:00      15 femenino 
 3 2021-05-07 00:00:00    2963299 2021-05-04 00:00:00      11 masculino
 4 2020-10-26 00:00:00    1018415 2020-10-23 00:00:00      25 masculino
 5 2020-08-09 00:00:00     380193 2020-07-25 00:00:00       8 femenino 
 6 2020-09-25 00:00:00     798355 2020-09-25 00:00:00      13 femenino 
 7 2022-07-07 00:00:00    6184438 2022-07-03 00:00:00      23 masculino
 8 2020-11-26 00:00:00    1276271 2020-11-11 00:00:00      26 femenino 
 9 2020-12-27 00:00:00    1592983 2020-12-13 00:00:00      25 femenino 
10 2022-01-26 00:00:00    5798751 2022-01-22 00:00:00      18 femenino 
# ℹ 13,225 more rows
# ℹ 14 more variables: tipo_de_contagio <chr>, ubicacion_del_caso <chr>,
#   estado <chr>, recuperado <chr>, fecha_de_inicio_de_sintomas <dttm>,
#   fecha_de_muerte <dttm>, fecha_de_diagnostico <dttm>,
#   fecha_de_recuperacion <dttm>, fecha_de_nacimiento <dttm>,
#   nombre_del_pais <chr>, sintomas <chr>,
#   numero_de_hospitalizaciones_recientes <dbl>, tension_sistolica <dbl>, …
```
…
-   **`arrange` (organizar)**

Para los casos donde se necesita organizar los datos por una o más
variables, se puede emplear la función `arrange`. Por ejemplo, para
organizar los datos por edad, o por edad y sexo:


``` r
dat %>% arrange(edad) 
# A tibble: 50,000 × 19
   fecha_reporte_web   id_de_caso fecha_de_notificacion  edad sexo     
   <dttm>                   <dbl> <dttm>                <dbl> <chr>    
 1 2021-06-19 00:00:00    3896591 2021-06-17 00:00:00       1 femenino 
 2 2021-04-11 00:00:00    2525260 2021-04-07 00:00:00       1 femenino 
 3 2022-07-28 00:00:00    6264159 2022-07-25 00:00:00       1 masculino
 4 2022-01-03 00:00:00    5184827 2021-12-26 00:00:00       1 masculino
 5 2022-02-19 00:00:00    6039958 2022-02-16 00:00:00       1 femenino 
 6 2021-10-07 00:00:00    4967494 2021-09-24 00:00:00       1 masculino
 7 2022-01-13 00:00:00    5410872 2021-12-30 00:00:00       1 masculino
 8 2021-06-23 00:00:00    4006796 2021-06-18 00:00:00       1 masculino
 9 2020-09-02 00:00:00     628110 2020-08-21 00:00:00       1 masculino
10 2021-07-09 00:00:00    4453365 2021-06-29 00:00:00       1 femenino 
# ℹ 49,990 more rows
# ℹ 14 more variables: tipo_de_contagio <chr>, ubicacion_del_caso <chr>,
#   estado <chr>, recuperado <chr>, fecha_de_inicio_de_sintomas <dttm>,
#   fecha_de_muerte <dttm>, fecha_de_diagnostico <dttm>,
#   fecha_de_recuperacion <dttm>, fecha_de_nacimiento <dttm>,
#   nombre_del_pais <chr>, sintomas <chr>,
#   numero_de_hospitalizaciones_recientes <dbl>, tension_sistolica <dbl>, …

dat %>% arrange(edad,sexo)
# A tibble: 50,000 × 19
   fecha_reporte_web   id_de_caso fecha_de_notificacion  edad sexo    
   <dttm>                   <dbl> <dttm>                <dbl> <chr>   
 1 2021-06-19 00:00:00    3896591 2021-06-17 00:00:00       1 femenino
 2 2021-04-11 00:00:00    2525260 2021-04-07 00:00:00       1 femenino
 3 2022-02-19 00:00:00    6039958 2022-02-16 00:00:00       1 femenino
 4 2021-07-09 00:00:00    4453365 2021-06-29 00:00:00       1 femenino
 5 2020-12-28 00:00:00    1596742 2020-12-24 00:00:00       1 femenino
 6 2021-08-29 00:00:00    4905206 2021-08-12 00:00:00       1 femenino
 7 2022-07-28 00:00:00    6263673 2022-07-24 00:00:00       1 femenino
 8 2020-10-14 00:00:00     929871 2020-10-02 00:00:00       1 femenino
 9 2021-03-28 00:00:00    2381786 2021-03-25 00:00:00       1 femenino
10 2021-01-06 00:00:00    1708679 2021-01-04 00:00:00       1 femenino
# ℹ 49,990 more rows
# ℹ 14 more variables: tipo_de_contagio <chr>, ubicacion_del_caso <chr>,
#   estado <chr>, recuperado <chr>, fecha_de_inicio_de_sintomas <dttm>,
#   fecha_de_muerte <dttm>, fecha_de_diagnostico <dttm>,
#   fecha_de_recuperacion <dttm>, fecha_de_nacimiento <dttm>,
#   nombre_del_pais <chr>, sintomas <chr>,
#   numero_de_hospitalizaciones_recientes <dbl>, tension_sistolica <dbl>, …
```

Por configuración predeterminada la función organiza los valores de
menor a mayor; en caso de querer organizarlos de mayor a menor se puede
emplear `desc` al interior de la función `arrange`.


``` r
dat %>% arrange(desc(edad))
# A tibble: 50,000 × 19
   fecha_reporte_web   id_de_caso fecha_de_notificacion  edad sexo     
   <dttm>                   <dbl> <dttm>                <dbl> <chr>    
 1 2021-06-27 00:00:00    4128658 2021-06-25 00:00:00     101 femenino 
 2 2022-02-03 00:00:00    5928342 2022-01-28 00:00:00     101 femenino 
 3 2021-04-17 00:00:00    2625780 2021-04-16 00:00:00     101 femenino 
 4 2021-07-14 00:00:00    4557691 2021-07-09 00:00:00     101 femenino 
 5 2022-06-30 00:00:00    6153260 2022-06-22 00:00:00     100 femenino 
 6 2020-10-16 00:00:00     942890 2020-10-13 00:00:00     100 femenino 
 7 2022-02-10 00:00:00    6000702 2022-01-16 00:00:00     100 masculino
 8 2021-07-19 00:00:00    4650913 2021-07-05 00:00:00      99 femenino 
 9 2021-06-11 00:00:00    3680598 2021-06-07 00:00:00      99 femenino 
10 2021-02-24 00:00:00    2236252 2021-02-23 00:00:00      99 masculino
# ℹ 49,990 more rows
# ℹ 14 more variables: tipo_de_contagio <chr>, ubicacion_del_caso <chr>,
#   estado <chr>, recuperado <chr>, fecha_de_inicio_de_sintomas <dttm>,
#   fecha_de_muerte <dttm>, fecha_de_diagnostico <dttm>,
#   fecha_de_recuperacion <dttm>, fecha_de_nacimiento <dttm>,
#   nombre_del_pais <chr>, sintomas <chr>,
#   numero_de_hospitalizaciones_recientes <dbl>, tension_sistolica <dbl>, …
```
-   **`mutate` (mudar)**

    Para crear una nueva columna con datos en un `data.frame` de una ya
    existente resulta de utilidad la función `mutate`. Esta función
    requiere el nombre de la columna a crear y de la columna de la que
    queremos copiar los datos. La columna nueva por configuración
    predeterminada se ubicará al final de las variables en la tabla de
    datos. En este ejemplo, vamos a crear una variable llamada pais en
    la cual usamos la variable `nombre_pais` pero en forma de mayúsculas
    con `toupper`

    
    ``` r
    dat %>% mutate(SEXO= toupper(sexo)) %>% select(SEXO)
    # A tibble: 50,000 × 1
       SEXO     
       <chr>    
     1 MASCULINO
     2 FEMENINO 
     3 MASCULINO
     4 FEMENINO 
     5 MASCULINO
     6 FEMENINO 
     7 MASCULINO
     8 MASCULINO
     9 FEMENINO 
    10 MASCULINO
    # ℹ 49,990 more rows
    ```

-   **`rename` (renombrar)**

En caso de que no queramos crear una nueva variable sino renombrar una
ya existente, conviene usar la función `rename`. Por ejemplo, para
cambiar el nombre `nombre_del_pais` por el nombre `pais` usamos:


``` r
dat %>% rename(edad_años = edad)
# A tibble: 50,000 × 19
   fecha_reporte_web   id_de_caso fecha_de_notificacion edad_años sexo     
   <dttm>                   <dbl> <dttm>                    <dbl> <chr>    
 1 2021-07-14 00:00:00    4565159 2021-07-07 00:00:00          23 masculino
 2 2021-04-24 00:00:00    2747373 2021-04-21 00:00:00          15 femenino 
 3 2021-05-07 00:00:00    2963299 2021-05-04 00:00:00          11 masculino
 4 2020-12-24 00:00:00    1552683 2020-12-21 00:00:00          39 femenino 
 5 2020-10-26 00:00:00    1018415 2020-10-23 00:00:00          25 masculino
 6 2020-08-09 00:00:00     380193 2020-07-25 00:00:00           8 femenino 
 7 2021-06-04 00:00:00    3503818 2021-06-02 00:00:00          53 masculino
 8 2021-05-26 00:00:00    3270945 2021-05-14 00:00:00          29 masculino
 9 2021-02-16 00:00:00    2201217 2021-02-13 00:00:00          41 femenino 
10 2020-10-30 00:00:00    1056515 2020-10-26 00:00:00          61 masculino
# ℹ 49,990 more rows
# ℹ 14 more variables: tipo_de_contagio <chr>, ubicacion_del_caso <chr>,
#   estado <chr>, recuperado <chr>, fecha_de_inicio_de_sintomas <dttm>,
#   fecha_de_muerte <dttm>, fecha_de_diagnostico <dttm>,
#   fecha_de_recuperacion <dttm>, fecha_de_nacimiento <dttm>,
#   nombre_del_pais <chr>, sintomas <chr>,
#   numero_de_hospitalizaciones_recientes <dbl>, tension_sistolica <dbl>, …
```
…
